Thursday 23rd of November 2017 06:10:27 PM /opt/lampp/htdocs/back_country_explorers/application/ws/controllers/webservice.php/setting Setting listing at line no. 797 
Thursday 23rd of November 2017 06:10:56 PM /opt/lampp/htdocs/back_country_explorers/application/ws/controllers/webservice.php/create_advanture Advanture created successfully at line no. 472 
Thursday 23rd of November 2017 06:11:11 PM /opt/lampp/htdocs/back_country_explorers/application/ws/controllers/webservice.php/upload_advanture_image Array
(
    [/webservice/upload_advanture_image] => 
    [advanture_id] => 38
    [host_id] => 9
)
 at line no. 672 
Thursday 23rd of November 2017 06:11:11 PM /opt/lampp/htdocs/back_country_explorers/application/ws/controllers/webservice.php/upload_advanture_image Array
(
)
 at line no. 673 
Thursday 23rd of November 2017 06:11:11 PM /opt/lampp/htdocs/back_country_explorers/application/ws/controllers/webservice.php/upload_advanture_image Advanture images uploaded successfully at line no. 728 
Thursday 23rd of November 2017 06:11:17 PM /opt/lampp/htdocs/back_country_explorers/application/ws/controllers/webservice.php/create_advanture Advanture created successfully at line no. 472 
Thursday 23rd of November 2017 06:12:03 PM /opt/lampp/htdocs/back_country_explorers/application/ws/controllers/webservice.php/create_advanture Advanture created successfully at line no. 472 
Thursday 23rd of November 2017 06:12:05 PM /opt/lampp/htdocs/back_country_explorers/application/ws/controllers/webservice.php/create_advanture Advanture created successfully at line no. 472 
Thursday 23rd of November 2017 06:12:07 PM /opt/lampp/htdocs/back_country_explorers/application/ws/controllers/webservice.php/create_advanture Advanture created successfully at line no. 472 
Thursday 23rd of November 2017 06:12:08 PM /opt/lampp/htdocs/back_country_explorers/application/ws/controllers/webservice.php/create_advanture Advanture created successfully at line no. 472 
Thursday 23rd of November 2017 06:12:10 PM /opt/lampp/htdocs/back_country_explorers/application/ws/controllers/webservice.php/create_advanture Advanture created successfully at line no. 472 
Thursday 23rd of November 2017 06:12:13 PM /opt/lampp/htdocs/back_country_explorers/application/ws/controllers/webservice.php/create_advanture Advanture created successfully at line no. 472 
Thursday 23rd of November 2017 06:13:09 PM /opt/lampp/htdocs/back_country_explorers/application/ws/controllers/webservice.php/create_advanture Advanture created successfully at line no. 472 
Thursday 23rd of November 2017 06:13:27 PM /opt/lampp/htdocs/back_country_explorers/application/ws/controllers/webservice.php/upload_advanture_image Array
(
    [/webservice/upload_advanture_image] => 
    [advanture_id] => 46
    [host_id] => 9
)
 at line no. 672 
Thursday 23rd of November 2017 06:13:27 PM /opt/lampp/htdocs/back_country_explorers/application/ws/controllers/webservice.php/upload_advanture_image Array
(
    [advanture_image] => Array
        (
            [name] => Array
                (
                    [0] => advImage.jpg
                )

            [type] => Array
                (
                    [0] => image/jpg
                )

            [tmp_name] => Array
                (
                    [0] => /opt/lampp/temp/phpPpQUe2
                )

            [error] => Array
                (
                    [0] => 0
                )

            [size] => Array
                (
                    [0] => 93786
                )

        )

)
 at line no. 673 
Thursday 23rd of November 2017 06:13:27 PM /opt/lampp/htdocs/back_country_explorers/application/ws/controllers/webservice.php/upload_advanture_image Advanture images uploaded successfully at line no. 728 
Thursday 23rd of November 2017 06:30:38 PM /opt/lampp/htdocs/back_country_explorers/application/ws/controllers/webservice.php/advanture_list Advanture listing at line no. 585 
Thursday 23rd of November 2017 06:34:32 PM /opt/lampp/htdocs/back_country_explorers/application/ws/controllers/webservice.php/advanture_list Advanture listing at line no. 585 
Thursday 23rd of November 2017 06:37:05 PM /opt/lampp/htdocs/back_country_explorers/application/ws/controllers/webservice.php/advanture_list Advanture listing at line no. 585 
Thursday 23rd of November 2017 06:38:09 PM /opt/lampp/htdocs/back_country_explorers/application/ws/controllers/webservice.php/advanture_list Advanture listing at line no. 585 
Thursday 23rd of November 2017 06:38:16 PM /opt/lampp/htdocs/back_country_explorers/application/ws/controllers/webservice.php/advanture_list Advanture listing at line no. 585 
Thursday 23rd of November 2017 06:40:58 PM /opt/lampp/htdocs/back_country_explorers/application/ws/controllers/webservice.php/advanture_list Advanture listing at line no. 585 
Thursday 23rd of November 2017 07:00:49 PM /opt/lampp/htdocs/back_country_explorers/application/ws/controllers/webservice.php/advanture_list Advanture listing at line no. 585 
Thursday 23rd of November 2017 07:03:14 PM /opt/lampp/htdocs/back_country_explorers/application/ws/controllers/webservice.php/advanture_list Advanture listing at line no. 585 
Thursday 23rd of November 2017 07:05:51 PM /opt/lampp/htdocs/back_country_explorers/application/ws/controllers/webservice.php/advanture_list Advanture listing at line no. 585 
Friday 24th of November 2017 10:28:20 AM /opt/lampp/htdocs/back_country_explorers/application/ws/controllers/webservice.php/login Email Id or password doesnot exist at line no. 157 
Friday 24th of November 2017 10:28:20 AM /opt/lampp/htdocs/back_country_explorers/application/ws/controllers/webservice.php/login Email Id or password doesnot exist at line no. 157 
Friday 24th of November 2017 10:28:20 AM /opt/lampp/htdocs/back_country_explorers/application/ws/controllers/webservice.php/login Email Id or password doesnot exist at line no. 157 
Friday 24th of November 2017 10:28:20 AM /opt/lampp/htdocs/back_country_explorers/application/ws/controllers/webservice.php/login Email Id or password doesnot exist at line no. 157 
Friday 24th of November 2017 10:28:20 AM /opt/lampp/htdocs/back_country_explorers/application/ws/controllers/webservice.php/login Email Id or password doesnot exist at line no. 157 
Friday 24th of November 2017 10:28:20 AM /opt/lampp/htdocs/back_country_explorers/application/ws/controllers/webservice.php/login Email Id or password doesnot exist at line no. 157 
Friday 24th of November 2017 10:28:20 AM /opt/lampp/htdocs/back_country_explorers/application/ws/controllers/webservice.php/login Email Id or password doesnot exist at line no. 157 
Friday 24th of November 2017 10:29:02 AM /opt/lampp/htdocs/back_country_explorers/application/ws/controllers/webservice.php/login Email Id or password doesnot exist at line no. 157 
Friday 24th of November 2017 10:29:09 AM /opt/lampp/htdocs/back_country_explorers/application/ws/controllers/webservice.php/login Login successfully at line no. 179 
Friday 24th of November 2017 10:29:28 AM /opt/lampp/htdocs/back_country_explorers/application/ws/controllers/webservice.php/advanture_list No advanture found at line no. 592 
Friday 24th of November 2017 10:29:33 AM /opt/lampp/htdocs/back_country_explorers/application/ws/controllers/webservice.php/advanture_list No advanture found at line no. 592 
Friday 24th of November 2017 10:30:05 AM /opt/lampp/htdocs/back_country_explorers/application/ws/controllers/webservice.php/advanture_list No advanture found at line no. 592 
Friday 24th of November 2017 10:30:15 AM /opt/lampp/htdocs/back_country_explorers/application/ws/controllers/webservice.php/advanture_list No advanture found at line no. 592 
Friday 24th of November 2017 10:30:40 AM /opt/lampp/htdocs/back_country_explorers/application/ws/controllers/webservice.php/login Email Id or password doesnot exist at line no. 157 
Friday 24th of November 2017 10:31:00 AM /opt/lampp/htdocs/back_country_explorers/application/ws/controllers/webservice.php/login Email Id or password doesnot exist at line no. 157 
Friday 24th of November 2017 10:34:36 AM /opt/lampp/htdocs/back_country_explorers/application/ws/controllers/webservice.php/login Email Id or password doesnot exist at line no. 157 
Friday 24th of November 2017 10:34:36 AM /opt/lampp/htdocs/back_country_explorers/application/ws/controllers/webservice.php/login Email Id or password doesnot exist at line no. 157 
Friday 24th of November 2017 10:34:36 AM /opt/lampp/htdocs/back_country_explorers/application/ws/controllers/webservice.php/login Email Id or password doesnot exist at line no. 157 
Friday 24th of November 2017 10:34:36 AM /opt/lampp/htdocs/back_country_explorers/application/ws/controllers/webservice.php/login Email Id or password doesnot exist at line no. 157 
Friday 24th of November 2017 10:34:55 AM /opt/lampp/htdocs/back_country_explorers/application/ws/controllers/webservice.php/login Email Id or password doesnot exist at line no. 157 
Friday 24th of November 2017 10:35:56 AM /opt/lampp/htdocs/back_country_explorers/application/ws/controllers/webservice.php/login Login successfully at line no. 179 
Friday 24th of November 2017 10:36:00 AM /opt/lampp/htdocs/back_country_explorers/application/ws/controllers/webservice.php/advanture_list No advanture found at line no. 592 
Friday 24th of November 2017 10:38:30 AM /opt/lampp/htdocs/back_country_explorers/application/ws/controllers/webservice.php/advanture_detail Advanture listing at line no. 642 
Friday 24th of November 2017 10:39:22 AM /opt/lampp/htdocs/back_country_explorers/application/ws/controllers/webservice.php/login Email Id or password doesnot exist at line no. 157 
Friday 24th of November 2017 10:39:27 AM /opt/lampp/htdocs/back_country_explorers/application/ws/controllers/webservice.php/login Email Id or password doesnot exist at line no. 157 
Friday 24th of November 2017 10:39:38 AM /opt/lampp/htdocs/back_country_explorers/application/ws/controllers/webservice.php/login Email Id or password doesnot exist at line no. 157 
Friday 24th of November 2017 10:39:44 AM /opt/lampp/htdocs/back_country_explorers/application/ws/controllers/webservice.php/login Email Id or password doesnot exist at line no. 157 
Friday 24th of November 2017 10:40:06 AM /opt/lampp/htdocs/back_country_explorers/application/ws/controllers/webservice.php/login Email Id or password doesnot exist at line no. 157 
Friday 24th of November 2017 10:40:14 AM /opt/lampp/htdocs/back_country_explorers/application/ws/controllers/webservice.php/login Login successfully at line no. 179 
Friday 24th of November 2017 10:40:17 AM /opt/lampp/htdocs/back_country_explorers/application/ws/controllers/webservice.php/advanture_list No advanture found at line no. 592 
Friday 24th of November 2017 10:40:51 AM /opt/lampp/htdocs/back_country_explorers/application/ws/controllers/webservice.php/login Login successfully at line no. 179 
Friday 24th of November 2017 10:40:54 AM /opt/lampp/htdocs/back_country_explorers/application/ws/controllers/webservice.php/advanture_list Advanture listing at line no. 585 
Friday 24th of November 2017 10:42:33 AM /opt/lampp/htdocs/back_country_explorers/application/ws/controllers/webservice.php/login Login successfully at line no. 179 
Friday 24th of November 2017 10:43:15 AM /opt/lampp/htdocs/back_country_explorers/application/ws/controllers/webservice.php/setting Setting listing at line no. 798 
Friday 24th of November 2017 10:44:47 AM /opt/lampp/htdocs/back_country_explorers/application/ws/controllers/webservice.php/create_advanture Advanture created successfully at line no. 472 
Friday 24th of November 2017 10:45:24 AM /opt/lampp/htdocs/back_country_explorers/application/ws/controllers/webservice.php/advanture_list Advanture listing at line no. 585 
Friday 24th of November 2017 11:04:47 AM /opt/lampp/htdocs/back_country_explorers/application/ws/controllers/webservice.php/advanture_list Advanture listing at line no. 635 
Friday 24th of November 2017 11:04:47 AM /opt/lampp/htdocs/back_country_explorers/application/ws/controllers/webservice.php/advanture_list Advanture listing at line no. 635 
Friday 24th of November 2017 11:04:56 AM /opt/lampp/htdocs/back_country_explorers/application/ws/controllers/webservice.php/login Login successfully at line no. 179 
Friday 24th of November 2017 11:04:58 AM /opt/lampp/htdocs/back_country_explorers/application/ws/controllers/webservice.php/advanture_list Advanture listing at line no. 635 
Friday 24th of November 2017 11:31:56 AM /opt/lampp/htdocs/back_country_explorers/application/ws/controllers/webservice.php/advanture_list Advanture listing at line no. 719 
Friday 24th of November 2017 11:37:10 AM /opt/lampp/htdocs/back_country_explorers/application/ws/controllers/webservice.php/login Login successfully at line no. 179 
Friday 24th of November 2017 11:37:18 AM /opt/lampp/htdocs/back_country_explorers/application/ws/controllers/webservice.php/advanture_list Advanture listing at line no. 681 
Friday 24th of November 2017 11:38:59 AM /opt/lampp/htdocs/back_country_explorers/application/ws/controllers/webservice.php/advanture_list Advanture listing at line no. 679 
Friday 24th of November 2017 11:39:28 AM /opt/lampp/htdocs/back_country_explorers/application/ws/controllers/webservice.php/advanture_list Advanture listing at line no. 679 
Friday 24th of November 2017 11:39:35 AM /opt/lampp/htdocs/back_country_explorers/application/ws/controllers/webservice.php/advanture_list Advanture listing at line no. 679 
Friday 24th of November 2017 11:52:10 AM /opt/lampp/htdocs/back_country_explorers/application/ws/controllers/webservice.php/advanture_list Advanture listing at line no. 703 
Friday 24th of November 2017 12:09:43 PM /opt/lampp/htdocs/back_country_explorers/application/ws/controllers/webservice.php/setting Setting listing at line no. 1017 
Friday 24th of November 2017 12:09:49 PM /opt/lampp/htdocs/back_country_explorers/application/ws/controllers/webservice.php/advanture_list Advanture listing at line no. 703 
Friday 24th of November 2017 12:11:39 PM /opt/lampp/htdocs/back_country_explorers/application/ws/controllers/webservice.php/edit_profile Profile updated successfully at line no. 433 
Friday 24th of November 2017 12:11:58 PM /opt/lampp/htdocs/back_country_explorers/application/ws/controllers/webservice.php/advanture_list Advanture listing at line no. 703 
Friday 24th of November 2017 12:14:08 PM /opt/lampp/htdocs/back_country_explorers/application/ws/controllers/webservice.php/advanture_list Advanture listing at line no. 703 
Friday 24th of November 2017 12:16:39 PM /opt/lampp/htdocs/back_country_explorers/application/ws/controllers/webservice.php/update_advanture Advanture updated successfully at line no. 649 
Friday 24th of November 2017 12:17:42 PM /opt/lampp/htdocs/back_country_explorers/application/ws/controllers/webservice.php/advanture_list Advanture listing at line no. 703 
Friday 24th of November 2017 12:24:17 PM /opt/lampp/htdocs/back_country_explorers/application/ws/controllers/webservice.php/advanture_list Advanture listing at line no. 703 
Friday 24th of November 2017 12:24:27 PM /opt/lampp/htdocs/back_country_explorers/application/ws/controllers/webservice.php/advanture_list Advanture listing at line no. 703 
Friday 24th of November 2017 02:14:49 PM /opt/lampp/htdocs/back_country_explorers/application/ws/controllers/webservice.php/forgot_password Password sent on your email id at line no. 362 
Friday 24th of November 2017 02:15:18 PM /opt/lampp/htdocs/back_country_explorers/application/ws/controllers/webservice.php/login Login successfully at line no. 179 
Friday 24th of November 2017 02:15:24 PM /opt/lampp/htdocs/back_country_explorers/application/ws/controllers/webservice.php/advanture_list No advanture found at line no. 710 
Friday 24th of November 2017 02:22:58 PM /opt/lampp/htdocs/back_country_explorers/application/ws/controllers/webservice.php/setting Setting listing at line no. 1017 
Friday 24th of November 2017 02:25:37 PM /opt/lampp/htdocs/back_country_explorers/application/ws/controllers/webservice.php/login Email Id or password doesnot exist at line no. 157 
Friday 24th of November 2017 02:25:49 PM /opt/lampp/htdocs/back_country_explorers/application/ws/controllers/webservice.php/login Login successfully at line no. 179 
Friday 24th of November 2017 02:30:02 PM /opt/lampp/htdocs/back_country_explorers/application/ws/controllers/webservice.php/setting Setting listing at line no. 1017 
Friday 24th of November 2017 02:34:33 PM /opt/lampp/htdocs/back_country_explorers/application/ws/controllers/webservice.php/setting Setting listing at line no. 1017 
Friday 24th of November 2017 02:55:15 PM /opt/lampp/htdocs/back_country_explorers/application/ws/controllers/webservice.php/login Email Id or password doesnot exist at line no. 157 
Friday 24th of November 2017 02:57:18 PM /opt/lampp/htdocs/back_country_explorers/application/ws/controllers/webservice.php/login Login successfully at line no. 179 
Friday 24th of November 2017 03:08:11 PM /opt/lampp/htdocs/back_country_explorers/application/ws/controllers/webservice.php/setting Setting listing at line no. 1017 
Friday 24th of November 2017 03:08:16 PM /opt/lampp/htdocs/back_country_explorers/application/ws/controllers/webservice.php/setting Setting listing at line no. 1017 
Friday 24th of November 2017 03:20:17 PM /opt/lampp/htdocs/back_country_explorers/application/ws/controllers/webservice.php/setting Setting listing at line no. 1017 
Friday 24th of November 2017 03:26:15 PM /opt/lampp/htdocs/back_country_explorers/application/ws/controllers/webservice.php/setting Setting listing at line no. 1017 
Friday 24th of November 2017 03:30:52 PM /opt/lampp/htdocs/back_country_explorers/application/ws/controllers/webservice.php/setting Setting listing at line no. 1017 
Friday 24th of November 2017 03:33:36 PM /opt/lampp/htdocs/back_country_explorers/application/ws/controllers/webservice.php/setting Setting listing at line no. 1017 
Friday 24th of November 2017 03:34:06 PM /opt/lampp/htdocs/back_country_explorers/application/ws/controllers/webservice.php/setting Setting listing at line no. 1017 
Friday 24th of November 2017 03:35:09 PM /opt/lampp/htdocs/back_country_explorers/application/ws/controllers/webservice.php/login Email Id or password doesnot exist at line no. 157 
Friday 24th of November 2017 03:35:30 PM /opt/lampp/htdocs/back_country_explorers/application/ws/controllers/webservice.php/forgot_password Email id not found at line no. 326 
Friday 24th of November 2017 03:35:32 PM /opt/lampp/htdocs/back_country_explorers/application/ws/controllers/webservice.php/forgot_password Email id not found at line no. 326 
Friday 24th of November 2017 03:44:39 PM /opt/lampp/htdocs/back_country_explorers/application/ws/controllers/webservice.php/signup Signup successfully at line no. 91 
Friday 24th of November 2017 03:44:45 PM /opt/lampp/htdocs/back_country_explorers/application/ws/controllers/webservice.php/setting Setting listing at line no. 1017 
Friday 24th of November 2017 03:48:20 PM /opt/lampp/htdocs/back_country_explorers/application/ws/controllers/webservice.php/login Email Id or password doesnot exist at line no. 157 
Friday 24th of November 2017 03:48:29 PM /opt/lampp/htdocs/back_country_explorers/application/ws/controllers/webservice.php/login Email Id or password doesnot exist at line no. 157 
Friday 24th of November 2017 03:48:41 PM /opt/lampp/htdocs/back_country_explorers/application/ws/controllers/webservice.php/login Email Id or password doesnot exist at line no. 157 
Friday 24th of November 2017 03:48:46 PM /opt/lampp/htdocs/back_country_explorers/application/ws/controllers/webservice.php/login Login successfully at line no. 179 
Friday 24th of November 2017 03:48:51 PM /opt/lampp/htdocs/back_country_explorers/application/ws/controllers/webservice.php/setting Setting listing at line no. 1017 
Friday 24th of November 2017 03:49:09 PM /opt/lampp/htdocs/back_country_explorers/application/ws/controllers/webservice.php/advanture_list No advanture found at line no. 710 
Friday 24th of November 2017 03:49:13 PM /opt/lampp/htdocs/back_country_explorers/application/ws/controllers/webservice.php/advanture_list No advanture found at line no. 710 
Friday 24th of November 2017 03:49:33 PM /opt/lampp/htdocs/back_country_explorers/application/ws/controllers/webservice.php/login Login successfully at line no. 179 
Friday 24th of November 2017 03:49:36 PM /opt/lampp/htdocs/back_country_explorers/application/ws/controllers/webservice.php/advanture_list Advanture listing at line no. 703 
Friday 24th of November 2017 04:01:27 PM /opt/lampp/htdocs/back_country_explorers/application/ws/controllers/webservice.php/advanture_list Advanture listing at line no. 703 
Friday 24th of November 2017 04:10:23 PM /opt/lampp/htdocs/back_country_explorers/application/ws/controllers/webservice.php/setting Setting listing at line no. 1017 
Friday 24th of November 2017 04:17:54 PM /opt/lampp/htdocs/back_country_explorers/application/ws/controllers/webservice.php/setting Setting listing at line no. 1017 
Friday 24th of November 2017 04:44:39 PM /opt/lampp/htdocs/back_country_explorers/application/ws/controllers/webservice.php/advanture_list Advanture listing at line no. 703 
Friday 24th of November 2017 04:44:48 PM /opt/lampp/htdocs/back_country_explorers/application/ws/controllers/webservice.php/advanture_list Advanture listing at line no. 703 
Friday 24th of November 2017 04:49:11 PM /opt/lampp/htdocs/back_country_explorers/application/ws/controllers/webservice.php/advanture_list Advanture listing at line no. 703 
Friday 24th of November 2017 04:49:20 PM /opt/lampp/htdocs/back_country_explorers/application/ws/controllers/webservice.php/feedback All fields required at line no. 1082 
Friday 24th of November 2017 04:49:31 PM /opt/lampp/htdocs/back_country_explorers/application/ws/controllers/webservice.php/feedback Feedback submited successfully at line no. 1068 
Friday 24th of November 2017 04:53:32 PM /opt/lampp/htdocs/back_country_explorers/application/ws/controllers/webservice.php/advanture_list Advanture listing at line no. 703 
Friday 24th of November 2017 05:39:58 PM /opt/lampp/htdocs/back_country_explorers/application/ws/controllers/webservice.php/advanture_list Advanture listing at line no. 703 
Friday 24th of November 2017 05:40:28 PM /opt/lampp/htdocs/back_country_explorers/application/ws/controllers/webservice.php/advanture_list Advanture listing at line no. 703 
Friday 24th of November 2017 05:41:02 PM /opt/lampp/htdocs/back_country_explorers/application/ws/controllers/webservice.php/advanture_list Advanture listing at line no. 703 
Friday 24th of November 2017 05:41:20 PM /opt/lampp/htdocs/back_country_explorers/application/ws/controllers/webservice.php/advanture_list Advanture listing at line no. 703 
Friday 24th of November 2017 05:44:06 PM /opt/lampp/htdocs/back_country_explorers/application/ws/controllers/webservice.php/setting Setting listing at line no. 1017 
Friday 24th of November 2017 05:54:08 PM /opt/lampp/htdocs/back_country_explorers/application/ws/controllers/webservice.php/advanture_list Advanture listing at line no. 703 
Friday 24th of November 2017 05:54:11 PM /opt/lampp/htdocs/back_country_explorers/application/ws/controllers/webservice.php/advanture_list Advanture listing at line no. 703 
Friday 24th of November 2017 05:54:25 PM /opt/lampp/htdocs/back_country_explorers/application/ws/controllers/webservice.php/advanture_list Advanture listing at line no. 703 
Friday 24th of November 2017 05:56:17 PM /opt/lampp/htdocs/back_country_explorers/application/ws/controllers/webservice.php/advanture_list Advanture listing at line no. 703 
Friday 24th of November 2017 05:56:29 PM /opt/lampp/htdocs/back_country_explorers/application/ws/controllers/webservice.php/advanture_list Advanture listing at line no. 703 
Friday 24th of November 2017 05:56:48 PM /opt/lampp/htdocs/back_country_explorers/application/ws/controllers/webservice.php/advanture_list Advanture listing at line no. 703 
Friday 24th of November 2017 06:24:35 PM /opt/lampp/htdocs/back_country_explorers/application/ws/controllers/webservice.php/setting Setting listing at line no. 1017 
Friday 24th of November 2017 07:10:25 PM /opt/lampp/htdocs/back_country_explorers/application/ws/controllers/webservice.php/advanture_list Advanture listing at line no. 703 
Friday 24th of November 2017 07:10:44 PM /opt/lampp/htdocs/back_country_explorers/application/ws/controllers/webservice.php/advanture_detail Advanture listing at line no. 760 
Saturday 25th of November 2017 11:57:52 AM /opt/lampp/htdocs/back_country_explorers/application/ws/controllers/webservice.php/all_advanture_list Advanture listing at line no. 937 
Saturday 25th of November 2017 11:59:13 AM /opt/lampp/htdocs/back_country_explorers/application/ws/controllers/webservice.php/all_advanture_list Advanture listing at line no. 937 
Saturday 25th of November 2017 12:01:50 PM /opt/lampp/htdocs/back_country_explorers/application/ws/controllers/webservice.php/all_advanture_detail Advanture listing at line no. 989 
Saturday 25th of November 2017 12:01:59 PM /opt/lampp/htdocs/back_country_explorers/application/ws/controllers/webservice.php/all_advanture_detail Advanture listing at line no. 989 
Saturday 25th of November 2017 12:22:16 PM /opt/lampp/htdocs/back_country_explorers/application/ws/controllers/webservice.php/all_advanture_detail Advanture listing at line no. 989 
Saturday 25th of November 2017 12:24:48 PM /opt/lampp/htdocs/back_country_explorers/application/ws/controllers/webservice.php/all_advanture_detail Advanture listing at line no. 989 
Saturday 25th of November 2017 12:24:51 PM /opt/lampp/htdocs/back_country_explorers/application/ws/controllers/webservice.php/all_advanture_list Advanture listing at line no. 937 
Saturday 25th of November 2017 07:00:27 PM /opt/lampp/htdocs/back_country_explorers/application/ws/controllers/webservice.php/all_advanture_list Advanture listing at line no. 940 
Saturday 25th of November 2017 07:12:30 PM /opt/lampp/htdocs/back_country_explorers/application/ws/controllers/webservice.php/all_advanture_list Advanture listing at line no. 940 
Saturday 25th of November 2017 07:13:48 PM /opt/lampp/htdocs/back_country_explorers/application/ws/controllers/webservice.php/all_advanture_list Advanture listing at line no. 939 
Monday 27th of November 2017 11:53:06 AM /opt/lampp/htdocs/back_country_explorers/application/ws/controllers/webservice.php/advanture_detail Advanture listing at line no. 768 
Monday 27th of November 2017 02:24:52 PM /opt/lampp/htdocs/back_country_explorers/application/ws/controllers/webservice.php/check_seat_availibility Advanture listing at line no. 1079 
Monday 27th of November 2017 02:26:07 PM /opt/lampp/htdocs/back_country_explorers/application/ws/controllers/webservice.php/check_seat_availibility Advanture listing at line no. 1079 
Monday 27th of November 2017 02:26:50 PM /opt/lampp/htdocs/back_country_explorers/application/ws/controllers/webservice.php/check_seat_availibility Advanture listing at line no. 1079 
Monday 27th of November 2017 02:27:40 PM /opt/lampp/htdocs/back_country_explorers/application/ws/controllers/webservice.php/check_seat_availibility Advanture listing at line no. 1076 
Monday 27th of November 2017 02:27:44 PM /opt/lampp/htdocs/back_country_explorers/application/ws/controllers/webservice.php/check_seat_availibility Advanture listing at line no. 1076 
Monday 27th of November 2017 04:09:55 PM /opt/lampp/htdocs/back_country_explorers/application/ws/controllers/webservice.php/signup Email Id already registered at line no. 146 
Monday 27th of November 2017 04:12:16 PM /opt/lampp/htdocs/back_country_explorers/application/ws/controllers/webservice.php/signup Password sent on your email id at line no. 110 
Monday 27th of November 2017 04:43:38 PM /opt/lampp/htdocs/back_country_explorers/application/ws/controllers/webservice.php/login Login successfully at line no. 212 
Monday 27th of November 2017 04:44:00 PM /opt/lampp/htdocs/back_country_explorers/application/ws/controllers/webservice.php/login Email Id or password doesnot exist at line no. 185 
Monday 27th of November 2017 04:44:03 PM /opt/lampp/htdocs/back_country_explorers/application/ws/controllers/webservice.php/login Login successfully at line no. 212 
Monday 27th of November 2017 04:44:38 PM /opt/lampp/htdocs/back_country_explorers/application/ws/controllers/webservice.php/login Email Id or password doesnot exist at line no. 185 
Monday 27th of November 2017 04:44:47 PM /opt/lampp/htdocs/back_country_explorers/application/ws/controllers/webservice.php/login Login successfully at line no. 212 
Monday 27th of November 2017 04:50:09 PM /opt/lampp/htdocs/back_country_explorers/application/ws/controllers/webservice.php/edit_profile Profile updated successfully at line no. 481 
Monday 27th of November 2017 04:54:01 PM /opt/lampp/htdocs/back_country_explorers/application/ws/controllers/webservice.php/edit_profile Profile updated successfully at line no. 487 
Monday 27th of November 2017 04:54:11 PM /opt/lampp/htdocs/back_country_explorers/application/ws/controllers/webservice.php/edit_profile Profile updated successfully at line no. 487 
Monday 27th of November 2017 04:54:34 PM /opt/lampp/htdocs/back_country_explorers/application/ws/controllers/webservice.php/edit_profile Profile updated successfully at line no. 487 
Monday 27th of November 2017 04:54:36 PM /opt/lampp/htdocs/back_country_explorers/application/ws/controllers/webservice.php/edit_profile Profile updated successfully at line no. 487 
Monday 27th of November 2017 04:54:36 PM /opt/lampp/htdocs/back_country_explorers/application/ws/controllers/webservice.php/edit_profile Profile updated successfully at line no. 487 
Monday 27th of November 2017 04:54:37 PM /opt/lampp/htdocs/back_country_explorers/application/ws/controllers/webservice.php/edit_profile Profile updated successfully at line no. 487 
Monday 27th of November 2017 04:54:38 PM /opt/lampp/htdocs/back_country_explorers/application/ws/controllers/webservice.php/edit_profile Profile updated successfully at line no. 487 
Monday 27th of November 2017 04:54:38 PM /opt/lampp/htdocs/back_country_explorers/application/ws/controllers/webservice.php/edit_profile Profile updated successfully at line no. 487 
Monday 27th of November 2017 04:54:39 PM /opt/lampp/htdocs/back_country_explorers/application/ws/controllers/webservice.php/edit_profile Profile updated successfully at line no. 487 
Monday 27th of November 2017 04:54:39 PM /opt/lampp/htdocs/back_country_explorers/application/ws/controllers/webservice.php/edit_profile Profile updated successfully at line no. 487 
Monday 27th of November 2017 04:54:40 PM /opt/lampp/htdocs/back_country_explorers/application/ws/controllers/webservice.php/edit_profile Profile updated successfully at line no. 487 
Monday 27th of November 2017 07:18:06 PM /opt/lampp/htdocs/back_country_explorers/application/ws/controllers/webservice.php/signup Password sent on your email id at line no. 115 
Tuesday 28th of November 2017 02:56:40 PM /opt/lampp/htdocs/back_country_explorers/application/ws/controllers/webservice.php/braintree_token Token generated at line no. 1407 
Tuesday 28th of November 2017 02:57:04 PM /opt/lampp/htdocs/back_country_explorers/application/ws/controllers/webservice.php/braintree_token Token generated at line no. 1407 
Thursday 30th of November 2017 11:02:48 AM /opt/lampp/htdocs/back_country_explorers/application/ws/controllers/webservice.php/create_advanture Advanture created successfully at line no. 634 
Thursday 30th of November 2017 11:02:48 AM /opt/lampp/htdocs/back_country_explorers/application/ws/controllers/webservice.php/create_advanture Responce: {"status":true,"message":"Advanture created successfully","advanture_id":48} at line no. 657 
Thursday 30th of November 2017 11:03:19 AM /opt/lampp/htdocs/back_country_explorers/application/ws/controllers/webservice.php/advanture_list Advanture listing at line no. 811 
Friday 1st of December 2017 04:18:48 PM /opt/lampp/htdocs/back_country_explorers/application/ws/controllers/webservice.php/user_booking_list Booking advanture listing at line no. 1294 
Wednesday 6th of December 2017 11:58:17 AM /opt/lampp/htdocs/back_country_explorers/application/ws/controllers/webservice.php/cancel_booking Advanture cancel successfully at line no. 1255 
Wednesday 6th of December 2017 12:05:43 PM /opt/lampp/htdocs/back_country_explorers/application/ws/controllers/webservice.php/braintree_token Token generated at line no. 1445 
Wednesday 6th of December 2017 12:06:07 PM /opt/lampp/htdocs/back_country_explorers/application/ws/controllers/webservice.php/braintree_transaction Payment failed at line no. 1533 
Wednesday 3rd of January 2018 05:23:32 PM /opt/lampp/htdocs/back_country_explorers/application/ws/controllers/webservice.php/search_advanture_list Adventure not found. at line no. 1401 
Wednesday 3rd of January 2018 05:23:47 PM /opt/lampp/htdocs/back_country_explorers/application/ws/controllers/webservice.php/search_advanture_list Adventure listing at line no. 1394 
Wednesday 3rd of January 2018 05:33:58 PM /opt/lampp/htdocs/back_country_explorers/application/ws/controllers/webservice.php/search_advanture_list Adventure listing at line no. 1397 
Wednesday 3rd of January 2018 05:41:10 PM /opt/lampp/htdocs/back_country_explorers/application/ws/controllers/webservice.php/search_advanture_list Adventure listing at line no. 1402 
Wednesday 3rd of January 2018 06:05:54 PM /opt/lampp/htdocs/back_country_explorers/application/ws/controllers/webservice.php/search_advanture_list Adventure listing at line no. 1402 
Wednesday 3rd of January 2018 06:42:34 PM /opt/lampp/htdocs/back_country_explorers/application/ws/controllers/webservice.php/user_booking_list Booking advanture listing at line no. 1333 
Wednesday 3rd of January 2018 06:52:37 PM /opt/lampp/htdocs/back_country_explorers/application/ws/controllers/webservice.php/search_advanture_list Adventure listing at line no. 1409 
